final project
…
Again, we see that although the number of words is more closely related to the length of the film, it does not coincide, so we can discard the hypothesis that the longer the dialogue, the longer the film.

Once we have checked this, the next step is to look at the term frequency of each word, to see which words are the most representative of each film. This is calculated as the number of times the word is repeated in the film divided by the total number of words in the film.

movie_words <- words %>%
 left_join(movie_words, by = "movie") |> 
  #we add a column for term_frequency in each novel
  mutate(term_frequency = n/total_words)
movie_words

# A tibble: 14,022 × 5
   movie                                  word      n total_words term_frequency
   <chr>                                  <chr> <int>       <int>          <dbl>
 1 Harry Potter and the Half-Blood Prince you     432       11330         0.0381
 2 Harry Potter and the Half-Blood Prince i       409       11330         0.0361
 3 Harry Potter and the Order of the Pho… you     382        9672         0.0395
 4 Harry Potter and the Prisoner of Azka… you     382        9720         0.0393
 5 Harry Potter and the Chamber of Secre… you     376       10814         0.0348
 6 Harry Potter and the Deathly Hallows … you     356       10212         0.0349
 7 Harry Potter and the Deathly Hallows … the     344       10212         0.0337
 8 Harry Potter and the Philosopher's St… you     326        9818         0.0332
 9 Harry Potter and the Chamber of Secre… the     320       10814         0.0296
10 Harry Potter and the Goblet of Fire    you     315        8230         0.0383
# ℹ 14,012 more rows
…
The most positive chapter is in the 6th movie, but close is in the 3rd. Most nagative chapter is in the 2nd. Now we can see one very positive chapter towards the end of teh 8th movie. We also see that the negative detailed chunks in the middle of the 6th movie is gone. All the chapters in the middle

The three methods of looking at sentiment analysis shows that we will get different results from different methods of grouping text. The first method, large chunks of dialogue, gives an overall feeling for long portions of the movie, but hides the mood of a specific scene. The second method, small chunks of dialogue, shows you the detailed view of sentiment which is cancelled out in the first method. The last method, grouping dialogue by chapter, provides a more natural analysis of the flow of each movie. The writers and director meant for each chapter to have a certain feeling, which can be lost when cutting a movie into chunks of dialogue arbitrarily.

2.1 Bigrams

df_bigrams <- df %>%
  #we take the dialogue in df, and tokenize it to sequences of 2 words
  unnest_tokens(bigram, dialog, token = "ngrams", n = 2) %>%
  drop_na(bigram)

df_bigrams %>%
  count(bigram, sort = TRUE)

# A tibble: 35,946 × 2
   bigram       n
   <chr>    <int>
 1 in the     191
 2 are you    152
 3 i don't    150
 4 you know   148
 5 of the     145
 6 do you     144
 7 i think    125
 8 to the     120
 9 come on    118
10 to be      114
# ℹ 35,936 more rows

bigrams_separated <- df_bigrams |> 
  # separate each bigram in two columns, word1 and word2
  separate(bigram, c("word1", "word2"), sep = " ")

bigrams_filtered <- bigrams_separated %>%
  filter(!word1 %in% stop_words$word) %>%
  filter(!word2 %in% stop_words$word)

bigrams_filtered %>% 
  count(word1, word2, sort = TRUE)

# A tibble: 4,525 × 3
   word1     word2          n
   <chr>     <chr>      <int>
 1 harry     potter        95
 2 ha        ha            34
 3 dark      lord          27
 4 bloody    hell          24
 5 professor dumbledore    23
 6 sirius    black         22
 7 professor snape         20
 8 miss      granger       18
 9 harry     harry         17
10 dark      arts          16
# ℹ 4,515 more rows
…
2.2 Trigrams

df_trigrams <- df %>%
  #we take the dialogue in df, and tokenize it to sequences of 2 words
  unnest_tokens(trigram, dialog, token = "ngrams", n = 3) %>%
  drop_na(trigram)

df_trigrams %>%
  count(trigram, sort = TRUE)

# A tibble: 54,166 × 2
   trigram                n
   <chr>              <int>
 1 i don't know          52
 2 you know who          36
 3 what are you          35
 4 what do you           29
 5 what is it            27
 6 the dark lord         26
 7 chamber of secrets    24
 8 do you think          24
 9 the chamber of        22
10 do you know           21
# ℹ 54,156 more rows

trigrams_separated <- df_trigrams |> 
  # separate each trigram in three columns, word1 and word2 and word3
  separate(trigram, c("word1", "word2", "word3"), sep = " ")

trigrams_filtered <- trigrams_separated %>%
  filter(!word1 %in% stop_words$word) %>%
  filter(!word2 %in% stop_words$word) %>%
  filter(!word3 %in% stop_words$word)

trigrams_filtered %>% 
  count(word1, word2, word3, sort = TRUE)

# A tibble: 1,338 × 4
   word1       word2      word3          n
   <chr>       <chr>      <chr>      <int>
 1 ha          ha         ha            19
 2 tri         wizard     tournament     8
 3 dark        arts       teacher        6
 4 tom         riddle's   diary          6
 5 half        blood      prince         5
 6 lumos       maxima     lumos          4
 7 maxima      lumos      maxima         4
 8 professor   dumbledore sir            4
 9 educational decree     twenty         3
10 happy       christmas  harry          3
# ℹ 1,328 more rows
…
# tokenize
by_chapter_word <- by_chapter %>%
  unnest_tokens(word, dialog)

# find document-word counts
word_counts <- by_chapter_word %>%
  anti_join(stop_words) %>%
  count(document, word, sort = TRUE)

word_counts

# A tibble: 18,314 × 3
   document                                                    word          n
   <chr>                                                       <chr>     <int>
 1 Harry Potter and the Chamber of Secrets_Dobby's warning     dobby        33
 2 Harry Potter and the Half-Blood Prince_Horcruxes            sir          23
 3 Harry Potter and the Chamber of Secrets_No longer safe      dobby        19
 4 Harry Potter and the Order of the Phoenix_The Lost Prophecy harry        17
 5 Harry Potter and the Half-Blood Prince_Horcruxes            harry        14
 6 Harry Potter and the Half-Blood Prince_What Could Be Safer? harry        13
 7 Harry Potter and the Chamber of Secrets_Whomping Willow     ahh          12
 8 Harry Potter and the Order of the Phoenix_Dumbledore's Army dobby        12
 9 Harry Potter and the Order of the Phoenix_Occlumency        potter       12
10 Harry Potter and the Order of the Phoenix_The Lost Prophecy voldemort    12
# ℹ 18,304 more rows
…
The results show 99% Sparsity in all the films, which suggests that the vocabulary used is very rich, which is to be expected, because as these are film scripts, it is perhaps less frequent that the vocabulary tends to repeat itself, as might be more likely to happen in books. The high degree of sparsity is a good sign that the topic modelling will be successful. So we can apply LDA without problems.

library(topicmodels)
# 4 topics are applied
chapters_lda <- LDA(chapters_dtm, k = 4, control = list(seed = 1234)) 
chapters_lda

A LDA_VEM topic model with 4 topics.

However, in order to be able to continue with the analysis, it is necessary to be able to transform the format to tidy.

chapter_topics <- tidy(chapters_lda)
chapter_topics

# A tibble: 21,456 × 3
   topic term       beta
   <int> <chr>     <dbl>
 1     1 dobby 3.07e-168
 2     2 dobby 3.66e-  3
 3     3 dobby 8.23e- 14
 4     4 dobby 1.09e-  2
 5     1 sir   1.62e-  2
 6     2 sir   2.42e-  3
 7     3 sir   8.60e-  3
 8     4 sir   6.98e-  3
 9     1 harry 2.91e-  2
10     2 harry 2.22e-  2
# ℹ 21,446 more rows
…
At a glance, it seems that harry is a star term, heading themes 3,4,5,6,7,8 and in 2 being Potter. This is not surprising, since we are talking about Harry Potter. In theme 1, words like sir, dumbledore and professor, accompany harry.

Theme 2 shows a different variety, with ron and hermione near the top, suggesting that this theme could be about Harry’s friends and companions, the character whose name is on the cover of the title page, it would be rare if this were not the case. On the other hand, theme 3 highlights hagrid and hermione alongside harry, perhaps pointing to key moments where these characters interact or play significant roles.

Finally, theme 4, apart from harry, highlights dobby and time. Dobby could be associated with emotional and significant moments in the saga, while time could be related to critical events in the plot or even to the time-turner in “The Prisoner of Azkaban”.

Each chapter to its book

Once we have identified those keywords that define each theme, the next step is to try to reconstruct the puzzle of chapters and assign each one to its original book. To do this, we are going to use gamma, which tells us the probability that a chapter contains certain themes. Think of gamma as the relationship a chapter has to the different topics, sort of like the Sorting Hat deciding which Hogwarts house you belong to (if the person reading this hasn’t seen a movie or read the Harry Potter books, they’ve missed a very good reference for explaining gamma). With this information, we can predict which book each chapter might belong to based on its dominant themes.

chapters_gamma <- tidy(chapters_lda, matrix = "gamma")
chapters_gamma

# A tibble: 956 × 3
   document                                                    topic     gamma
   <chr>                                                       <int>     <dbl>
 1 Harry Potter and the Chamber of Secrets_Dobby's warning         1 0.000112 
 2 Harry Potter and the Half-Blood Prince_Horcruxes                1 1.00     
 3 Harry Potter and the Chamber of Secrets_No longer safe          1 0.000117 
 4 Harry Potter and the Order of the Phoenix_The Lost Prophecy     1 0.0000675
 5 Harry Potter and the Half-Blood Prince_What Could Be Safer?     1 1.00     
 6 Harry Potter and the Chamber of Secrets_Whomping Willow         1 0.000606 
 7 Harry Potter and the Order of the Phoenix_Dumbledore's Army     1 0.000140 
 8 Harry Potter and the Order of the Phoenix_Occlumency            1 0.000145 
 9 Harry Potter and the Deathly Hallows Part 2_King's Cross        1 1.00     
10 Harry Potter and the Half-Blood Prince_The Secret Riddle        1 0.275    
# ℹ 946 more rows

At the end, each chapter will have a set of probabilities associated with the themes, and thus a suggestion of which book it belongs to. This step is crucial because it allows us to see how the chapters are grouped together. If we get it right, we can see how the pieces of the puzzle fit together perfectly!

chapters_gamma <- chapters_gamma %>%
  separate(document, c("title", "chapter"), sep = "_", convert = TRUE)

chapters_gamma

# A tibble: 956 × 4
   title                                       chapter             topic   gamma
   <chr>                                       <chr>               <int>   <dbl>
 1 Harry Potter and the Chamber of Secrets     Dobby's warning         1 1.12e-4
 2 Harry Potter and the Half-Blood Prince      Horcruxes               1 1.00e+0
 3 Harry Potter and the Chamber of Secrets     No longer safe          1 1.17e-4
 4 Harry Potter and the Order of the Phoenix   The Lost Prophecy       1 6.75e-5
 5 Harry Potter and the Half-Blood Prince      What Could Be Safe…     1 1.00e+0
 6 Harry Potter and the Chamber of Secrets     Whomping Willow         1 6.06e-4
 7 Harry Potter and the Order of the Phoenix   Dumbledore's Army       1 1.40e-4
 8 Harry Potter and the Order of the Phoenix   Occlumency              1 1.45e-4
 9 Harry Potter and the Deathly Hallows Part 2 King's Cross            1 1.00e+0
10 Harry Potter and the Half-Blood Prince      The Secret Riddle       1 2.75e-1
# ℹ 946 more rows
…
The scattering of dots outside the boxes, i.e. outliers, could point to chapters that are uniquely different in their thematic content compared to other chapters within the same book. For example, there are some chapters in Harry Potter and the Order of the Phoenix that appear to be unique in their thematic profile, given the scattering of dots.

Let’s investigate further.

First, we should have a look at the topic that has been most associated with each chapter of the book.

chapter_classifications <- chapters_gamma %>%
  group_by(title, chapter) %>%
  #we use slice max to order by gamma
  slice_max(gamma) %>%
  ungroup()

chapter_classifications

# A tibble: 239 × 4
   title                                   chapter            topic gamma
   <chr>                                   <chr>              <int> <dbl>
 1 Harry Potter and the Chamber of Secrets A Parselmouth          3 0.999
 2 Harry Potter and the Chamber of Secrets About the Chamber      3 1.00 
 3 Harry Potter and the Chamber of Secrets Aragog                 3 0.999
 4 Harry Potter and the Chamber of Secrets Backfire               2 0.999
 5 Harry Potter and the Chamber of Secrets Car rescue             2 0.998
 6 Harry Potter and the Chamber of Secrets Chamber of Secrets     1 0.999
 7 Harry Potter and the Chamber of Secrets Cornelius Fudge        3 0.999
 8 Harry Potter and the Chamber of Secrets Dobby's reward         4 0.558
 9 Harry Potter and the Chamber of Secrets Dobby's warning        4 1.00 
10 Harry Potter and the Chamber of Secrets Dueling Club           2 0.999
# ℹ 229 more rows
…
Second, we check with an inner join if any chapter is assigned to a topic different from the consensus.

chapter_classifications %>%
  inner_join(book_topics, by = "topic") %>%
  filter(title != consensus)

# A tibble: 448 × 5
   title                                   chapter         topic gamma consensus
   <chr>                                   <chr>           <int> <dbl> <chr>    
 1 Harry Potter and the Chamber of Secrets A Parselmouth       3 0.999 Harry Po…
 2 Harry Potter and the Chamber of Secrets About the Cham…     3 1.00  Harry Po…
 3 Harry Potter and the Chamber of Secrets Aragog              3 0.999 Harry Po…
 4 Harry Potter and the Chamber of Secrets Backfire            2 0.999 Harry Po…
 5 Harry Potter and the Chamber of Secrets Backfire            2 0.999 Harry Po…
 6 Harry Potter and the Chamber of Secrets Backfire            2 0.999 Harry Po…
 7 Harry Potter and the Chamber of Secrets Car rescue          2 0.998 Harry Po…
 8 Harry Potter and the Chamber of Secrets Car rescue          2 0.998 Harry Po…
 9 Harry Potter and the Chamber of Secrets Car rescue          2 0.998 Harry Po…
10 Harry Potter and the Chamber of Secrets Chamber of Sec…     1 0.999 Harry Po…
# ℹ 438 more rows
…
